Differential expression with multiple covariates • devil
…
Top differentially expressed genes

# Extract top DE genes for each stimulus
top_genes <- de_results %>%
    dplyr::filter(adj_pval < 0.05) %>%
    dplyr::group_by(coefficient) %>%
    dplyr::arrange(adj_pval) %>%
    dplyr::slice_head(n = 10) %>%
    dplyr::select(coefficient, name, lfc, adj_pval)

print(top_genes)
#> # A tibble: 30 × 4
#> # Groups:   coefficient [3]
#>    coefficient                                       name           lfc adj_pval
#>    <chr>                                             <chr>        <dbl>    <dbl>
#>  1 stimulusOT-I non-binding peptide NP68 (ASNENMDAM) ENSMUSG0000… -1.72 6.55e-39
#>  2 stimulusOT-I non-binding peptide NP68 (ASNENMDAM) ENSMUSG0000…  2.47 7.58e-36
#>  3 stimulusOT-I non-binding peptide NP68 (ASNENMDAM) ENSMUSG0000… -2.17 1.63e-21
#>  4 stimulusOT-I non-binding peptide NP68 (ASNENMDAM) ENSMUSG0000… -1.87 2.74e-20
#>  5 stimulusOT-I non-binding peptide NP68 (ASNENMDAM) ENSMUSG0000…  1.73 1.12e-19
#>  6 stimulusOT-I non-binding peptide NP68 (ASNENMDAM) ENSMUSG0000… -6.27 2.45e-19
#>  7 stimulusOT-I non-binding peptide NP68 (ASNENMDAM) ENSMUSG0000… -4.06 2.97e-17
#>  8 stimulusOT-I non-binding peptide NP68 (ASNENMDAM) ENSMUSG0000…  1.96 1.41e-16
#>  9 stimulusOT-I non-binding peptide NP68 (ASNENMDAM) ENSMUSG0000… -4.56 4.68e-16
#> 10 stimulusOT-I non-binding peptide NP68 (ASNENMDAM) ENSMUSG0000…  2.56 3.41e-15
#> # ℹ 20 more rows
…
