…
### Top differentially expressed genes

``` r

# Extract top DE genes for each stimulus
top_genes <- de_results %>%
    dplyr::filter(adj_pval < 0.05) %>%
    dplyr::group_by(coefficient) %>%
    dplyr::arrange(adj_pval) %>%
    dplyr::slice_head(n = 10) %>%
    dplyr::select(coefficient, name, lfc, adj_pval)

print(top_genes)
#> # A tibble: 30 × 4
#> # Groups:   coefficient [3]
#>    coefficient                                       name           lfc adj_pval
#>    <chr>                                             <chr>        <dbl>    <dbl>
#>  1 stimulusOT-I non-binding peptide NP68 (ASNENMDAM) ENSMUSG0000… -4.56 4.55e-99
#>  2 stimulusOT-I non-binding peptide NP68 (ASNENMDAM) ENSMUSG0000… -4.57 2.55e-72
#>  3 stimulusOT-I non-binding peptide NP68 (ASNENMDAM) ENSMUSG0000… -4.06 1.09e-69
#>  4 stimulusOT-I non-binding peptide NP68 (ASNENMDAM) ENSMUSG0000… -1.72 1.50e-63
#>  5 stimulusOT-I non-binding peptide NP68 (ASNENMDAM) ENSMUSG0000…  2.47 1.13e-44
#>  6 stimulusOT-I non-binding peptide NP68 (ASNENMDAM) ENSMUSG0000… -3.46 2.61e-39
#>  7 stimulusOT-I non-binding peptide NP68 (ASNENMDAM) ENSMUSG0000… -3.99 6.53e-37
#>  8 stimulusOT-I non-binding peptide NP68 (ASNENMDAM) ENSMUSG0000… -2.00 7.64e-35
#>  9 stimulusOT-I non-binding peptide NP68 (ASNENMDAM) ENSMUSG0000… -2.53 4.25e-33
#> 10 stimulusOT-I non-binding peptide NP68 (ASNENMDAM) ENSMUSG0000… -2.31 5.69e-33
#> # ℹ 20 more rows
```
…
